-- Merging decision tree log ---
manifest
ADDED from /home/developer/AppTour/sample/src/main/AndroidManifest.xml:2:1-24:12
	xmlns:android
		ADDED from /home/developer/AppTour/sample/src/main/AndroidManifest.xml:2:11-69
	package
		ADDED from /home/developer/AppTour/sample/src/main/AndroidManifest.xml:3:5-43
		INJECTED from /home/developer/AppTour/sample/src/main/AndroidManifest.xml
		INJECTED from /home/developer/AppTour/sample/src/main/AndroidManifest.xml
	android:versionName
		INJECTED from /home/developer/AppTour/sample/src/main/AndroidManifest.xml
		INJECTED from /home/developer/AppTour/sample/src/main/AndroidManifest.xml
	android:versionCode
		INJECTED from /home/developer/AppTour/sample/src/main/AndroidManifest.xml
		INJECTED from /home/developer/AppTour/sample/src/main/AndroidManifest.xml
application
ADDED from /home/developer/AppTour/sample/src/main/AndroidManifest.xml:5:5-22:19
MERGED from [com.android.support:appcompat-v7:23.1.0] /home/developer/AppTour/sample/build/intermediates/exploded-aar/com.android.support/appcompat-v7/23.1.0/AndroidManifest.xml:22:5-20
MERGED from [com.android.support:support-v4:23.1.0] /home/developer/AppTour/sample/build/intermediates/exploded-aar/com.android.support/support-v4/23.1.0/AndroidManifest.xml:22:5-20
MERGED from [AppTour:apptour-library:unspecified] /home/developer/AppTour/sample/build/intermediates/exploded-aar/AppTour/apptour-library/unspecified/AndroidManifest.xml:11:5-20
MERGED from [com.android.support:appcompat-v7:23.1.0] /home/developer/AppTour/sample/build/intermediates/exploded-aar/com.android.support/appcompat-v7/23.1.0/AndroidManifest.xml:22:5-20
MERGED from [com.android.support:support-v4:23.1.0] /home/developer/AppTour/sample/build/intermediates/exploded-aar/com.android.support/support-v4/23.1.0/AndroidManifest.xml:22:5-20
MERGED from [com.malinskiy:materialicons:1.0.2] /home/developer/AppTour/sample/build/intermediates/exploded-aar/com.malinskiy/materialicons/1.0.2/AndroidManifest.xml:12:5-20
	android:label
		ADDED from /home/developer/AppTour/sample/src/main/AndroidManifest.xml:8:9-41
	android:allowBackup
		ADDED from /home/developer/AppTour/sample/src/main/AndroidManifest.xml:6:9-35
	android:icon
		ADDED from /home/developer/AppTour/sample/src/main/AndroidManifest.xml:7:9-43
	android:theme
		ADDED from /home/developer/AppTour/sample/src/main/AndroidManifest.xml:9:9-40
activity#com.vlonjatg.android.apptour.MainActivity
ADDED from /home/developer/AppTour/sample/src/main/AndroidManifest.xml:10:9-18:20
	android:label
		ADDED from /home/developer/AppTour/sample/src/main/AndroidManifest.xml:12:13-45
	android:name
		ADDED from /home/developer/AppTour/sample/src/main/AndroidManifest.xml:11:13-41
intent-filter#android.intent.action.MAIN+android.intent.category.LAUNCHER
ADDED from /home/developer/AppTour/sample/src/main/AndroidManifest.xml:13:13-17:29
action#android.intent.action.MAIN
ADDED from /home/developer/AppTour/sample/src/main/AndroidManifest.xml:14:17-69
	android:name
		ADDED from /home/developer/AppTour/sample/src/main/AndroidManifest.xml:14:25-66
category#android.intent.category.LAUNCHER
ADDED from /home/developer/AppTour/sample/src/main/AndroidManifest.xml:16:17-77
	android:name
		ADDED from /home/developer/AppTour/sample/src/main/AndroidManifest.xml:16:27-74
activity#com.vlonjatg.android.apptour.TabView
ADDED from /home/developer/AppTour/sample/src/main/AndroidManifest.xml:19:9-45
	android:name
		ADDED from /home/developer/AppTour/sample/src/main/AndroidManifest.xml:19:19-42
activity#com.vlonjatg.android.apptour.Ipa
ADDED from /home/developer/AppTour/sample/src/main/AndroidManifest.xml:20:9-41
	android:name
		ADDED from /home/developer/AppTour/sample/src/main/AndroidManifest.xml:20:19-38
activity#com.vlonjatg.android.apptour.Ips
ADDED from /home/developer/AppTour/sample/src/main/AndroidManifest.xml:21:9-50
	android:name
		ADDED from /home/developer/AppTour/sample/src/main/AndroidManifest.xml:21:19-38
uses-sdk
INJECTED from /home/developer/AppTour/sample/src/main/AndroidManifest.xml reason: use-sdk injection requested
MERGED from [com.android.support:appcompat-v7:23.1.0] /home/developer/AppTour/sample/build/intermediates/exploded-aar/com.android.support/appcompat-v7/23.1.0/AndroidManifest.xml:20:5-43
MERGED from [com.android.support:support-v4:23.1.0] /home/developer/AppTour/sample/build/intermediates/exploded-aar/com.android.support/support-v4/23.1.0/AndroidManifest.xml:20:5-43
MERGED from [AppTour:apptour-library:unspecified] /home/developer/AppTour/sample/build/intermediates/exploded-aar/AppTour/apptour-library/unspecified/AndroidManifest.xml:7:5-9:41
MERGED from [com.android.support:appcompat-v7:23.1.0] /home/developer/AppTour/sample/build/intermediates/exploded-aar/com.android.support/appcompat-v7/23.1.0/AndroidManifest.xml:20:5-43
MERGED from [com.android.support:support-v4:23.1.0] /home/developer/AppTour/sample/build/intermediates/exploded-aar/com.android.support/support-v4/23.1.0/AndroidManifest.xml:20:5-43
MERGED from [com.malinskiy:materialicons:1.0.2] /home/developer/AppTour/sample/build/intermediates/exploded-aar/com.malinskiy/materialicons/1.0.2/AndroidManifest.xml:8:5-10:41
	android:targetSdkVersion
		INJECTED from /home/developer/AppTour/sample/src/main/AndroidManifest.xml
		INJECTED from /home/developer/AppTour/sample/src/main/AndroidManifest.xml
	android:minSdkVersion
		INJECTED from /home/developer/AppTour/sample/src/main/AndroidManifest.xml
		INJECTED from /home/developer/AppTour/sample/src/main/AndroidManifest.xml
